{
    "count": 32,
    "next": "https://pokeapi.co/api/v2/pokemon?offset=12&limit=12",
    "previous": null,
    "results": [
        {
            "name": "ditto",
            "url": "https://pokeapi.co/api/v2/pokemon/1/"
        },
        {
            "name": "ditto",
            "url": "https://pokeapi.co/api/v2/pokemon/2/"
        },
        {
            "name": "ditto",
            "url": "https://pokeapi.co/api/v2/pokemon/3/"
        },
        {
            "name": "ditto",
            "url": "https://pokeapi.co/api/v2/pokemon/4/"
        },
        {
            "name": "ditto",
            "url": "https://pokeapi.co/api/v2/pokemon/5/"
        },
        {
            "name": "ditto",
            "url": "https://pokeapi.co/api/v2/pokemon/6/"
        },
        {
            "name": "ditto",
            "url": "https://pokeapi.co/api/v2/pokemon/7/"
        },
        {
            "name": "ditto",
            "url": "https://pokeapi.co/api/v2/pokemon/8/"
        },
        {
            "name": "ditto",
            "url": "https://pokeapi.co/api/v2/pokemon/9/"
        },
        {
            "name": "ditto",
            "url": "https://pokeapi.co/api/v2/pokemon/10/"
        },
        {
            "name": "ditto",
            "url": "https://pokeapi.co/api/v2/pokemon/11/"
        },
        {
            "name": "ditto",
            "url": "https://pokeapi.co/api/v2/pokemon/12/"
        }
    ]
}
